<?xml version="1.0" encoding="utf-8"?>
<!-- Generator: Adobe Illustrator 17.0.0, SVG Export Plug-In . SVG Version: 6.00 Build 0)  -->
<!DOCTYPE svg PUBLIC "-//W3C//DTD SVG 1.1//EN" "http://www.w3.org/Graphics/SVG/1.1/DTD/svg11.dtd">
<svg version="1.1" id="facebook" xmlns="http://www.w3.org/2000/svg" xmlns:xlink="http://www.w3.org/1999/xlink" x="0px" y="0px"
	 width="10.754px" height="19.89px" viewBox="0 0 10.754 19.89" enable-background="new 0 0 10.754 19.89" xml:space="preserve">
<g opacity="1">
	<path fill="#1e1e1e" id="facebook-path" d="M10.347,0.004L7.768,0C4.871,0,2.999,1.92,2.999,4.894v2.257H0.406C0.181,7.151,0,7.333,0,7.557v3.27
		c0,0.225,0.182,0.406,0.406,0.406h2.593v8.251c0,0.225,0.181,0.406,0.406,0.406h3.383c0.225,0,0.406-0.182,0.406-0.406v-8.252
		h3.032c0.225,0,0.406-0.181,0.406-0.406l0.001-3.27c0-0.108-0.042-0.211-0.119-0.286c-0.076-0.076-0.18-0.119-0.288-0.119H7.194
		V5.238c0-0.919,0.22-1.386,1.417-1.386h1.737c0.223,0,0.406-0.182,0.406-0.406V0.41C10.751,0.187,10.57,0.004,10.347,0.004z"/>
</g>
</svg>
