<?xml version="1.0" encoding="utf-8"?>
<!-- Generator: Adobe Illustrator 17.0.0, SVG Export Plug-In . SVG Version: 6.00 Build 0)  -->
<!DOCTYPE svg PUBLIC "-//W3C//DTD SVG 1.1//EN" "http://www.w3.org/Graphics/SVG/1.1/DTD/svg11.dtd">
<svg version="1.1" fill="#ffffff" xmlns="http://www.w3.org/2000/svg" xmlns:xlink="http://www.w3.org/1999/xlink" x="0px" y="0px"
	 width="19.941px" height="19.941px" viewBox="0 0 19.941 19.941" enable-background="new 0 0 19.941 19.941" xml:space="preserve">
<path fill="#ffffff" d="M15.164,0H4.777C2.139,0,0,2.138,0,4.777v10.386c0,2.638,2.138,4.777,4.777,4.777h10.386
	c2.638,0,4.777-2.138,4.777-4.777V4.777C19.941,2.139,17.802,0,15.164,0z M9.97,15.293c-2.87,0-5.195-2.327-5.195-5.195
	S7.102,4.902,9.97,4.902s5.195,2.327,5.195,5.195S12.839,15.293,9.97,15.293z M16.319,5.094c-0.815,0-1.478-0.661-1.478-1.478
	s0.661-1.478,1.478-1.478c0.815,0,1.478,0.661,1.478,1.478S17.134,5.094,16.319,5.094z"/>
</svg>
