<?xml version="1.0" encoding="utf-8"?>
<!-- Generator: Adobe Illustrator 17.0.0, SVG Export Plug-In . SVG Version: 6.00 Build 0)  -->
<!DOCTYPE svg PUBLIC "-//W3C//DTD SVG 1.1//EN" "http://www.w3.org/Graphics/SVG/1.1/DTD/svg11.dtd">
<svg version="1.1" id="Слой_1" xmlns="http://www.w3.org/2000/svg" xmlns:xlink="http://www.w3.org/1999/xlink" x="0px" y="0px"
	 width="66.883px" height="68.63px" viewBox="0 0 66.883 68.63" enable-background="new 0 0 66.883 68.63" xml:space="preserve">
<path fill="none" stroke="#1FCCA3" stroke-width="2" stroke-linecap="round" stroke-linejoin="round" stroke-miterlimit="10" d="
	M45.541,34.3V23.862h-5.536c-0.269-0.836-0.609-1.638-0.998-2.413l3.997-3.997l-7.381-7.381l-3.919,3.919
	c-0.864-0.455-1.771-0.84-2.715-1.143V7.311H18.551v5.536c-0.872,0.28-1.709,0.636-2.513,1.047l-3.822-3.822l-7.381,7.381
	l3.796,3.796c-0.433,0.835-0.803,1.706-1.095,2.614H2v10.438h5.536c0.303,0.944,0.688,1.85,1.143,2.715l-3.845,3.845l7.381,7.381
	l3.923-3.923c0.774,0.389,1.577,0.729,2.413,0.998v5.536h10.438v-5.536c0.908-0.292,1.779-0.662,2.614-1.095l4.02,4.02l7.381-7.381
	l-4.046-4.046c0.411-0.805,0.766-1.641,1.047-2.513h5.536L45.541,34.3L45.541,34.3z"/>
<circle fill="none" stroke="#1FCCA3" stroke-width="2" stroke-linecap="round" stroke-linejoin="round" stroke-miterlimit="10" cx="23.77" cy="29.081" r="10.214"/>
<line fill="none" stroke="#1FCCA3" stroke-width="2" stroke-linecap="round" stroke-linejoin="round" stroke-miterlimit="10" x1="23.77" y1="39.296" x2="23.77" y2="42.502"/>
<line fill="none" stroke="#1FCCA3" stroke-width="2" stroke-linecap="round" stroke-linejoin="round" stroke-miterlimit="10" x1="23.77" y1="15.661" x2="23.77" y2="18.867"/>
<line fill="none" stroke="#1FCCA3" stroke-width="2" stroke-linecap="round" stroke-linejoin="round" stroke-miterlimit="10" x1="31.115" y1="36.426" x2="33.26" y2="38.571"/>
<line fill="none" stroke="#1FCCA3" stroke-width="2" stroke-linecap="round" stroke-linejoin="round" stroke-miterlimit="10" x1="14.281" y1="19.592" x2="16.49" y2="21.801"/>
<line fill="none" stroke="#1FCCA3" stroke-width="2" stroke-linecap="round" stroke-linejoin="round" stroke-miterlimit="10" x1="16.386" y1="36.466" x2="14.281" y2="38.571"/>
<line fill="none" stroke="#1FCCA3" stroke-width="2" stroke-linecap="round" stroke-linejoin="round" stroke-miterlimit="10" x1="33.26" y1="19.592" x2="31.008" y2="21.843"/>
<line fill="none" stroke="#1FCCA3" stroke-width="2" stroke-linecap="round" stroke-linejoin="round" stroke-miterlimit="10" x1="33.985" y1="29.081" x2="37.191" y2="29.081"/>
<line fill="none" stroke="#1FCCA3" stroke-width="2" stroke-linecap="round" stroke-linejoin="round" stroke-miterlimit="10" x1="10.35" y1="29.081" x2="13.469" y2="29.081"/>
<path fill="none" stroke="#1FCCA3" stroke-width="2" stroke-linecap="round" stroke-linejoin="round" stroke-miterlimit="10" d="
	M23.646,28.74"/>
<path fill="none" stroke="#1FCCA3" stroke-width="2" stroke-linecap="round" stroke-linejoin="round" stroke-miterlimit="10" d="
	M23.348,4.846c0,0-0.234-2.828,3.688-3.242c4-0.07,38.848,0,38.848,0v53.375H27.216c-3.291,0-5.958,2.714-5.958,6.063
	c0,3.139,2.345,5.721,5.349,6.031c0.2,0.021,38.901-0.01,38.901-0.01s-6.362-0.433-6.416-6.032
	c-0.032-3.331,3.501-6.052,6.791-6.052"/>
<polyline fill="none" stroke="#1FCCA3" stroke-width="2" stroke-linecap="round" stroke-linejoin="round" stroke-miterlimit="10" points="
	45.133,10.854 60.758,10.854 60.758,31.854 49.763,31.854 "/>
<line fill="none" stroke="#1FCCA3" stroke-width="2" stroke-linecap="round" stroke-linejoin="round" stroke-miterlimit="10" x1="26.633" y1="60.979" x2="51.008" y2="60.979"/>
<line fill="none" stroke="#1FCCA3" stroke-width="2" stroke-linecap="round" stroke-linejoin="round" stroke-miterlimit="10" x1="54.508" y1="60.979" x2="54.383" y2="60.979"/>
</svg>
