<?xml version="1.0" encoding="utf-8"?>
<!-- Generator: Adobe Illustrator 17.0.0, SVG Export Plug-In . SVG Version: 6.00 Build 0)  -->
<!DOCTYPE svg PUBLIC "-//W3C//DTD SVG 1.1//EN" "http://www.w3.org/Graphics/SVG/1.1/DTD/svg11.dtd">
<svg version="1.1" id="Слой_1" xmlns="http://www.w3.org/2000/svg" xmlns:xlink="http://www.w3.org/1999/xlink" x="0px" y="0px"
	 width="33.741px" height="10.646px" viewBox="0 0 33.741 10.646" enable-background="new 0 0 33.741 10.646" xml:space="preserve">
<line fill="none" stroke="#1E1E1E" stroke-width="2" stroke-linecap="round" stroke-miterlimit="10" x1="1" y1="5.323" x2="31.765" y2="5.323"/>
<polyline fill="none" stroke="#1E1E1E" stroke-width="2" stroke-linecap="round" stroke-miterlimit="10" points="28.004,1 
	32.327,5.323 28.004,9.646 "/>
</svg>
